{"help": "https://data.gov.il/api/3/action/help_show?name=datastore_search", "success": true, "result": {"include_total": true, "limit": 2, "records_format": "objects", "resource_id": "6d47d6b5-cb08-488b-b333-f1e717b1e1bd", "total_estimation_threshold": null, "records": [{"_id":1,"FUND_ID":1560,"FUND_NAME":"מיטב פנסיה מקיפה פאסיבי- מדדי אג\"ח עד 25% במדדי מניות","PARENT_COMPANY_ID":163,"PARENT_COMPANY_NAME":"מיטב פנסיה מקיפה","FUND_CLASSIFICATION":"קרנות חדשות","CONTROLLING_CORPORATION":"מיטב דש השקעות בע\"מ","MANAGING_CORPORATION":"מיטב גמל ופנסיה בע\"מ","REPORT_PERIOD":202401,"INCEPTION_DATE":"2015-12-31 00:00:00","DEPOSITS":0.14,"WITHDRAWLS":0.03,"INTERNAL_TRANSFERS":0.81,"NET_MONTHLY_DEPOSITS":0.92,"TOTAL_ASSETS":16.85,"AVG_ANNUAL_MANAGEMENT_FEE":0.1,"AVG_DEPOSIT_FEE":1.39,"MONTHLY_YIELD":0.48,"YEAR_TO_DATE_YIELD":0.48,"ACTUARIAL_ADJUSTMENT":null,"YIELD_TRAILING_3_YRS":11.45,"YIELD_TRAILING_5_YRS":23.6,"AVG_ANNUAL_YIELD_TRAILING_3YRS":3.68,"AVG_ANNUAL_YIELD_TRAILING_5YRS":4.33,"STANDARD_DEVIATION":4.4,"ALPHA":1.56,"SHARPE_RATIO":0.63,"LIQUID_ASSETS_PERCENT":97.1,"STOCK_MARKET_EXPOSURE":2.75,"FOREIGN_EXPOSURE":11.04,"FOREIGN_CURRENCY_EXPOSURE":11.29,"MANAGING_CORPORATION_LEGAL_ID":512065202,"CURRENT_DATE":"2026-07-04 00:00:00"},{"_id":2,"FUND_ID":1560,"FUND_NAME":"מיטב פנסיה מקיפה פאסיבי- מדדי אג\"ח עד 25% במדדי מניות","PARENT_COMPANY_ID":163,"PARENT_COMPANY_NAME":"מיטב פנסיה מקיפה","FUND_CLASSIFICATION":"קרנות חדשות","CONTROLLING_CORPORATION":"מיטב דש השקעות בע\"מ","MANAGING_CORPORATION":"מיטב גמל ופנסיה בע\"מ","REPORT_PERIOD":202402,"INCEPTION_DATE":"2015-12-31 00:00:00","DEPOSITS":0.14,"WITHDRAWLS":0.01,"INTERNAL_TRANSFERS":-0.16,"NET_MONTHLY_DEPOSITS":-0.03,"TOTAL_ASSETS":16.65,"AVG_ANNUAL_MANAGEMENT_FEE":0.1,"AVG_DEPOSIT_FEE":1.39,"MONTHLY_YIELD":-1.04,"YEAR_TO_DATE_YIELD":-0.56,"ACTUARIAL_ADJUSTMENT":null,"YIELD_TRAILING_3_YRS":10.46,"YIELD_TRAILING_5_YRS":21.41,"AVG_ANNUAL_YIELD_TRAILING_3YRS":3.37,"AVG_ANNUAL_YIELD_TRAILING_5YRS":3.96,"STANDARD_DEVIATION":4.43,"ALPHA":1.08,"SHARPE_RATIO":0.48,"LIQUID_ASSETS_PERCENT":97,"STOCK_MARKET_EXPOSURE":2.8,"FOREIGN_EXPOSURE":10.86,"FOREIGN_CURRENCY_EXPOSURE":11.1,"MANAGING_CORPORATION_LEGAL_ID":512065202,"CURRENT_DATE":"2026-07-04 00:00:00"}], "fields": [{"id": "_id", "type": "int"}, {"id": "FUND_ID", "type": "numeric"}, {"id": "FUND_NAME", "type": "text"}, {"id": "PARENT_COMPANY_ID", "type": "numeric"}, {"id": "PARENT_COMPANY_NAME", "type": "text"}, {"id": "FUND_CLASSIFICATION", "type": "text"}, {"id": "CONTROLLING_CORPORATION", "type": "text"}, {"id": "MANAGING_CORPORATION", "type": "text"}, {"id": "REPORT_PERIOD", "type": "numeric"}, {"id": "INCEPTION_DATE", "type": "text"}, {"id": "DEPOSITS", "type": "numeric"}, {"id": "WITHDRAWLS", "type": "numeric"}, {"id": "INTERNAL_TRANSFERS", "type": "numeric"}, {"id": "NET_MONTHLY_DEPOSITS", "type": "numeric"}, {"id": "TOTAL_ASSETS", "type": "numeric"}, {"id": "AVG_ANNUAL_MANAGEMENT_FEE", "type": "numeric"}, {"id": "AVG_DEPOSIT_FEE", "type": "numeric"}, {"id": "MONTHLY_YIELD", "type": "numeric"}, {"id": "YEAR_TO_DATE_YIELD", "type": "numeric"}, {"id": "ACTUARIAL_ADJUSTMENT", "type": "numeric"}, {"id": "YIELD_TRAILING_3_YRS", "type": "numeric"}, {"id": "YIELD_TRAILING_5_YRS", "type": "numeric"}, {"id": "AVG_ANNUAL_YIELD_TRAILING_3YRS", "type": "numeric"}, {"id": "AVG_ANNUAL_YIELD_TRAILING_5YRS", "type": "numeric"}, {"id": "STANDARD_DEVIATION", "type": "numeric"}, {"id": "ALPHA", "type": "numeric"}, {"id": "SHARPE_RATIO", "type": "numeric"}, {"id": "LIQUID_ASSETS_PERCENT", "type": "numeric"}, {"id": "STOCK_MARKET_EXPOSURE", "type": "numeric"}, {"id": "FOREIGN_EXPOSURE", "type": "numeric"}, {"id": "FOREIGN_CURRENCY_EXPOSURE", "type": "numeric"}, {"id": "MANAGING_CORPORATION_LEGAL_ID", "type": "numeric"}, {"id": "CURRENT_DATE", "type": "text"}], "_links": {"start": "/api/3/action/datastore_search?resource_id=6d47d6b5-cb08-488b-b333-f1e717b1e1bd&limit=2", "next": "/api/3/action/datastore_search?resource_id=6d47d6b5-cb08-488b-b333-f1e717b1e1bd&limit=2&offset=2"}, "total": 8132, "total_was_estimated": false}}